PE/logs/pe_mux_run.log
Running pe_mux...
[1000] PASS tag=100 sel=0 out=0x0
[2000] PASS tag=100 sel=1 out=0x1
[3000] PASS tag=100 sel=2 out=0x2
[4000] PASS tag=100 sel=3 out=0x3
[5000] PASS tag=100 sel=4 out=0x4
[6000] PASS tag=100 sel=5 out=0x5
[7000] PASS tag=100 sel=6 out=0x6
[8000] PASS tag=100 sel=7 out=0x7
[9000] PASS tag=200 sel=0 out=0x1
[10000] PASS tag=200 sel=1 out=0x2
[11000] PASS tag=200 sel=2 out=0x4
[12000] PASS tag=200 sel=3 out=0x8
[13000] PASS tag=200 sel=4 out=0x10
[14000] PASS tag=200 sel=5 out=0x20
[15000] PASS tag=200 sel=6 out=0x40
[16000] PASS tag=200 sel=7 out=0x80
[17000] PASS tag=300 sel=0 out=0x0
[18000] PASS tag=300 sel=1 out=0x0
[19000] PASS tag=300 sel=2 out=0x0
[20000] PASS tag=300 sel=3 out=0x0
[21000] PASS tag=300 sel=4 out=0x0
[22000] PASS tag=300 sel=5 out=0x0
[23000] PASS tag=300 sel=6 out=0x0
[24000] PASS tag=300 sel=7 out=0x0
[25000] PASS tag=400 sel=0 out=0xff
[26000] PASS tag=400 sel=1 out=0xff
[27000] PASS tag=400 sel=2 out=0xff
[28000] PASS tag=400 sel=3 out=0xff
[29000] PASS tag=400 sel=4 out=0xff
[30000] PASS tag=400 sel=5 out=0xff
[31000] PASS tag=400 sel=6 out=0xff
[32000] PASS tag=400 sel=7 out=0xff
[33000] PASS tag=500 sel=0 out=0x24
[34000] PASS tag=500 sel=1 out=0x81
[35000] PASS tag=500 sel=2 out=0x9
[36000] PASS tag=500 sel=3 out=0x63
[37000] PASS tag=500 sel=4 out=0xd
[38000] PASS tag=500 sel=5 out=0x8d
[39000] PASS tag=500 sel=6 out=0x65
[40000] PASS tag=500 sel=7 out=0x12
[41000] PASS tag=501 sel=0 out=0x1
[42000] PASS tag=501 sel=1 out=0xd
[43000] PASS tag=501 sel=2 out=0x76
[44000] PASS tag=501 sel=3 out=0x3d
[45000] PASS tag=501 sel=4 out=0xed
[46000] PASS tag=501 sel=5 out=0x8c
[47000] PASS tag=501 sel=6 out=0xf9
[48000] PASS tag=501 sel=7 out=0xc6
[49000] PASS tag=502 sel=0 out=0xc5
[50000] PASS tag=502 sel=1 out=0xaa
[51000] PASS tag=502 sel=2 out=0xe5
[52000] PASS tag=502 sel=3 out=0x77
[53000] PASS tag=502 sel=4 out=0x12
[54000] PASS tag=502 sel=5 out=0x8f
[55000] PASS tag=502 sel=6 out=0xf2
[56000] PASS tag=502 sel=7 out=0xce
[57000] PASS tag=503 sel=0 out=0xe8
[58000] PASS tag=503 sel=1 out=0xc5
[59000] PASS tag=503 sel=2 out=0x5c
[60000] PASS tag=503 sel=3 out=0xbd
[61000] PASS tag=503 sel=4 out=0x2d
[62000] PASS tag=503 sel=5 out=0x65
[63000] PASS tag=503 sel=6 out=0x63
[64000] PASS tag=503 sel=7 out=0xa
[65000] PASS tag=504 sel=0 out=0x80
[66000] PASS tag=504 sel=1 out=0x20
[67000] PASS tag=504 sel=2 out=0xaa
[68000] PASS tag=504 sel=3 out=0x9d
[69000] PASS tag=504 sel=4 out=0x96
[70000] PASS tag=504 sel=5 out=0x13
[71000] PASS tag=504 sel=6 out=0xd
[72000] PASS tag=504 sel=7 out=0x53
[73000] PASS tag=505 sel=0 out=0x6b
[74000] PASS tag=505 sel=1 out=0xd5
[75000] PASS tag=505 sel=2 out=0x2
[76000] PASS tag=505 sel=3 out=0xae
[77000] PASS tag=505 sel=4 out=0x1d
[78000] PASS tag=505 sel=5 out=0xcf
[79000] PASS tag=505 sel=6 out=0x23
[80000] PASS tag=505 sel=7 out=0xa
[81000] PASS tag=506 sel=0 out=0xca
[82000] PASS tag=506 sel=1 out=0x3c
[83000] PASS tag=506 sel=2 out=0xf2
[84000] PASS tag=506 sel=3 out=0x8a
[85000] PASS tag=506 sel=4 out=0x41
[86000] PASS tag=506 sel=5 out=0xd8
[87000] PASS tag=506 sel=6 out=0x78
[88000] PASS tag=506 sel=7 out=0x89
[89000] PASS tag=507 sel=0 out=0xeb
[90000] PASS tag=507 sel=1 out=0xb6
[91000] PASS tag=507 sel=2 out=0xc6
[92000] PASS tag=507 sel=3 out=0xae
[93000] PASS tag=507 sel=4 out=0xbc
[94000] PASS tag=507 sel=5 out=0x2a
[95000] PASS tag=507 sel=6 out=0xb
[96000] PASS tag=507 sel=7 out=0x71
[97000] PASS tag=508 sel=0 out=0x85
[98000] PASS tag=508 sel=1 out=0x4f
[99000] PASS tag=508 sel=2 out=0x3b
[100000] PASS tag=508 sel=3 out=0x3a
[101000] PASS tag=508 sel=4 out=0x7e
[102000] PASS tag=508 sel=5 out=0x15
[103000] PASS tag=508 sel=6 out=0xf1
[104000] PASS tag=508 sel=7 out=0xd9
[105000] PASS tag=509 sel=0 out=0x62
[106000] PASS tag=509 sel=1 out=0x4c
[107000] PASS tag=509 sel=2 out=0x9f
[108000] PASS tag=509 sel=3 out=0x8f
[109000] PASS tag=509 sel=4 out=0xf8
[110000] PASS tag=509 sel=5 out=0xb7
[111000] PASS tag=509 sel=6 out=0x9f
[112000] PASS tag=509 sel=7 out=0x5c
[113000] PASS tag=510 sel=0 out=0x5b
[114000] PASS tag=510 sel=1 out=0x89
[115000] PASS tag=510 sel=2 out=0x49
[116000] PASS tag=510 sel=3 out=0xd0
[117000] PASS tag=510 sel=4 out=0xd7
[118000] PASS tag=510 sel=5 out=0x51
[119000] PASS tag=510 sel=6 out=0x96
[120000] PASS tag=510 sel=7 out=0xc
[121000] PASS tag=511 sel=0 out=0xc2
[122000] PASS tag=511 sel=1 out=0xc8
[123000] PASS tag=511 sel=2 out=0x77
[124000] PASS tag=511 sel=3 out=0x3d
[125000] PASS tag=511 sel=4 out=0x12
[126000] PASS tag=511 sel=5 out=0x7e
[127000] PASS tag=511 sel=6 out=0x6d
[128000] PASS tag=511 sel=7 out=0x39
[129000] PASS tag=512 sel=0 out=0x1f
[130000] PASS tag=512 sel=1 out=0xd3
[131000] PASS tag=512 sel=2 out=0x85
[132000] PASS tag=512 sel=3 out=0x78
[133000] PASS tag=512 sel=4 out=0x5b
[134000] PASS tag=512 sel=5 out=0x49
[135000] PASS tag=512 sel=6 out=0x3f
[136000] PASS tag=512 sel=7 out=0x2a
[137000] PASS tag=513 sel=0 out=0x58
[138000] PASS tag=513 sel=1 out=0x86
[139000] PASS tag=513 sel=2 out=0x8e
[140000] PASS tag=513 sel=3 out=0x9c
[141000] PASS tag=513 sel=4 out=0xfa
[142000] PASS tag=513 sel=5 out=0x26
[143000] PASS tag=513 sel=6 out=0x73
[144000] PASS tag=513 sel=7 out=0xa3
[145000] PASS tag=514 sel=0 out=0x2f
[146000] PASS tag=514 sel=1 out=0xb3
[147000] PASS tag=514 sel=2 out=0x5f
[148000] PASS tag=514 sel=3 out=0x44
[149000] PASS tag=514 sel=4 out=0xf7
[150000] PASS tag=514 sel=5 out=0xcb
[151000] PASS tag=514 sel=6 out=0xe6
[152000] PASS tag=514 sel=7 out=0x5a
[153000] PASS tag=515 sel=0 out=0x29
[154000] PASS tag=515 sel=1 out=0xed
[155000] PASS tag=515 sel=2 out=0xda
[156000] PASS tag=515 sel=3 out=0x65
[157000] PASS tag=515 sel=4 out=0xb5
[158000] PASS tag=515 sel=5 out=0xdf
[159000] PASS tag=515 sel=6 out=0x79
[160000] PASS tag=515 sel=7 out=0x44
[161000] PASS tag=516 sel=0 out=0xd0
[162000] PASS tag=516 sel=1 out=0x2a
[163000] PASS tag=516 sel=2 out=0xab
[164000] PASS tag=516 sel=3 out=0xe
[165000] PASS tag=516 sel=4 out=0xdc
[166000] PASS tag=516 sel=5 out=0x9a
[167000] PASS tag=516 sel=6 out=0xfd
[168000] PASS tag=516 sel=7 out=0xc3
[169000] PASS tag=517 sel=0 out=0x56
[170000] PASS tag=517 sel=1 out=0x4e
[171000] PASS tag=517 sel=2 out=0x67
[172000] PASS tag=517 sel=3 out=0xa
[173000] PASS tag=517 sel=4 out=0xb6
[174000] PASS tag=517 sel=5 out=0x38
[175000] PASS tag=517 sel=6 out=0x79
[176000] PASS tag=517 sel=7 out=0xb8
[177000] PASS tag=518 sel=0 out=0x94
[178000] PASS tag=518 sel=1 out=0x93
[179000] PASS tag=518 sel=2 out=0x4
[180000] PASS tag=518 sel=3 out=0x59
[181000] PASS tag=518 sel=4 out=0xdb
[182000] PASS tag=518 sel=5 out=0x4d
[183000] PASS tag=518 sel=6 out=0xd9
[184000] PASS tag=518 sel=7 out=0x6d
[185000] PASS tag=519 sel=0 out=0x76
[186000] PASS tag=519 sel=1 out=0xca
[187000] PASS tag=519 sel=2 out=0xb6
[188000] PASS tag=519 sel=3 out=0x95
[189000] PASS tag=519 sel=4 out=0x46
[190000] PASS tag=519 sel=5 out=0x4
[191000] PASS tag=519 sel=6 out=0xf7
[192000] PASS tag=519 sel=7 out=0x69
[193000] PASS tag=520 sel=0 out=0xb4
[194000] PASS tag=520 sel=1 out=0x88
[195000] PASS tag=520 sel=2 out=0x28
[196000] PASS tag=520 sel=3 out=0x2d
[197000] PASS tag=520 sel=4 out=0xc7
[198000] PASS tag=520 sel=5 out=0x2e
[199000] PASS tag=520 sel=6 out=0x8
[200000] PASS tag=520 sel=7 out=0x1c
[201000] PASS tag=521 sel=0 out=0xfd
[202000] PASS tag=521 sel=1 out=0x29
[203000] PASS tag=521 sel=2 out=0x1c
[204000] PASS tag=521 sel=3 out=0x86
[205000] PASS tag=521 sel=4 out=0xda
[206000] PASS tag=521 sel=5 out=0x3d
[207000] PASS tag=521 sel=6 out=0x66
[208000] PASS tag=521 sel=7 out=0x70
[209000] PASS tag=522 sel=0 out=0x73
[210000] PASS tag=522 sel=1 out=0xba
[211000] PASS tag=522 sel=2 out=0x5e
[212000] PASS tag=522 sel=3 out=0xfa
[213000] PASS tag=522 sel=4 out=0xd5
[214000] PASS tag=522 sel=5 out=0x1a
[215000] PASS tag=522 sel=6 out=0xb9
[216000] PASS tag=522 sel=7 out=0x37
[217000] PASS tag=523 sel=0 out=0x96
[218000] PASS tag=523 sel=1 out=0xc0
[219000] PASS tag=523 sel=2 out=0x26
[220000] PASS tag=523 sel=3 out=0xb6
[221000] PASS tag=523 sel=4 out=0x7d
[222000] PASS tag=523 sel=5 out=0xdc
[223000] PASS tag=523 sel=6 out=0x86
[224000] PASS tag=523 sel=7 out=0x78
[225000] PASS tag=524 sel=0 out=0x7e
[226000] PASS tag=524 sel=1 out=0xdb
[227000] PASS tag=524 sel=2 out=0xcf
[228000] PASS tag=524 sel=3 out=0x79
[229000] PASS tag=524 sel=4 out=0xfa
[230000] PASS tag=524 sel=5 out=0x61
[231000] PASS tag=524 sel=6 out=0x17
[232000] PASS tag=524 sel=7 out=0xa1
[233000] PASS tag=525 sel=0 out=0x86
[234000] PASS tag=525 sel=1 out=0x50
[235000] PASS tag=525 sel=2 out=0xf5
[236000] PASS tag=525 sel=3 out=0x35
[237000] PASS tag=525 sel=4 out=0x29
[238000] PASS tag=525 sel=5 out=0xc1
[239000] PASS tag=525 sel=6 out=0xc5
[240000] PASS tag=525 sel=7 out=0x98
[241000] PASS tag=526 sel=0 out=0x4b
[242000] PASS tag=526 sel=1 out=0x73
[243000] PASS tag=526 sel=2 out=0xec
[244000] PASS tag=526 sel=3 out=0x8a
[245000] PASS tag=526 sel=4 out=0x4e
[246000] PASS tag=526 sel=5 out=0xa8
[247000] PASS tag=526 sel=6 out=0xa9
[248000] PASS tag=526 sel=7 out=0xa1
[249000] PASS tag=527 sel=0 out=0xe
[250000] PASS tag=527 sel=1 out=0xe6
[251000] PASS tag=527 sel=2 out=0x9f
[252000] PASS tag=527 sel=3 out=0x2a
[253000] PASS tag=527 sel=4 out=0x2a
[254000] PASS tag=527 sel=5 out=0x8d
[255000] PASS tag=527 sel=6 out=0x9e
[256000] PASS tag=527 sel=7 out=0x38
[257000] PASS tag=528 sel=0 out=0x79
[258000] PASS tag=528 sel=1 out=0xc8
[259000] PASS tag=528 sel=2 out=0xca
[260000] PASS tag=528 sel=3 out=0x13
[261000] PASS tag=528 sel=4 out=0x6b
[262000] PASS tag=528 sel=5 out=0xc7
[263000] PASS tag=528 sel=6 out=0xb6
[264000] PASS tag=528 sel=7 out=0xba
[265000] PASS tag=529 sel=0 out=0xc4
[266000] PASS tag=529 sel=1 out=0xb9
[267000] PASS tag=529 sel=2 out=0x92
[268000] PASS tag=529 sel=3 out=0xb4
[269000] PASS tag=529 sel=4 out=0x7f
[270000] PASS tag=529 sel=5 out=0x86
[271000] PASS tag=529 sel=6 out=0xfa
[272000] PASS tag=529 sel=7 out=0xf2
[273000] PASS tag=530 sel=0 out=0x32
[274000] PASS tag=530 sel=1 out=0xbd
[275000] PASS tag=530 sel=2 out=0x84
[276000] PASS tag=530 sel=3 out=0xe4
[277000] PASS tag=530 sel=4 out=0xca
[278000] PASS tag=530 sel=5 out=0xa9
[279000] PASS tag=530 sel=6 out=0xa1
[280000] PASS tag=530 sel=7 out=0x8e
[281000] PASS tag=531 sel=0 out=0xfb
[282000] PASS tag=531 sel=1 out=0xb
[283000] PASS tag=531 sel=2 out=0xef
[284000] PASS tag=531 sel=3 out=0xc9
[285000] PASS tag=531 sel=4 out=0x36
[286000] PASS tag=531 sel=5 out=0x75
[287000] PASS tag=531 sel=6 out=0x8f
[288000] PASS tag=531 sel=7 out=0x6b
[289000] PASS tag=532 sel=0 out=0x88
[290000] PASS tag=532 sel=1 out=0xae
[291000] PASS tag=532 sel=2 out=0x9b
[292000] PASS tag=532 sel=3 out=0x92
[293000] PASS tag=532 sel=4 out=0x28
[294000] PASS tag=532 sel=5 out=0x2d
[295000] PASS tag=532 sel=6 out=0x4b
[296000] PASS tag=532 sel=7 out=0xc2
[297000] PASS tag=533 sel=0 out=0x1e
[298000] PASS tag=533 sel=1 out=0xd
[299000] PASS tag=533 sel=2 out=0xec
[300000] PASS tag=533 sel=3 out=0x18
[301000] PASS tag=533 sel=4 out=0xd1
[302000] PASS tag=533 sel=5 out=0x86
[303000] PASS tag=533 sel=6 out=0x41
[304000] PASS tag=533 sel=7 out=0x3b
[305000] PASS tag=534 sel=0 out=0xd8
[306000] PASS tag=534 sel=1 out=0x53
[307000] PASS tag=534 sel=2 out=0x56
[308000] PASS tag=534 sel=3 out=0x5b
[309000] PASS tag=534 sel=4 out=0xe2
[310000] PASS tag=534 sel=5 out=0x4
[311000] PASS tag=534 sel=6 out=0x73
[312000] PASS tag=534 sel=7 out=0xd8
[313000] PASS tag=535 sel=0 out=0x12
[314000] PASS tag=535 sel=1 out=0xb8
[315000] PASS tag=535 sel=2 out=0x39
[316000] PASS tag=535 sel=3 out=0xe5
[317000] PASS tag=535 sel=4 out=0xa1
[318000] PASS tag=535 sel=5 out=0x2b
[319000] PASS tag=535 sel=6 out=0x81
[320000] PASS tag=535 sel=7 out=0xc8
[321000] PASS tag=536 sel=0 out=0x27
[322000] PASS tag=536 sel=1 out=0xa1
[323000] PASS tag=536 sel=2 out=0x1f
[324000] PASS tag=536 sel=3 out=0x4
[325000] PASS tag=536 sel=4 out=0x58
[326000] PASS tag=536 sel=5 out=0x96
[327000] PASS tag=536 sel=6 out=0x14
[328000] PASS tag=536 sel=7 out=0x12
[329000] PASS tag=537 sel=0 out=0x96
[330000] PASS tag=537 sel=1 out=0xb1
[331000] PASS tag=537 sel=2 out=0x55
[332000] PASS tag=537 sel=3 out=0xed
[333000] PASS tag=537 sel=4 out=0x2b
[334000] PASS tag=537 sel=5 out=0xf5
[335000] PASS tag=537 sel=6 out=0xad
[336000] PASS tag=537 sel=7 out=0x27
[337000] PASS tag=538 sel=0 out=0x84
[338000] PASS tag=538 sel=1 out=0xa7
[339000] PASS tag=538 sel=2 out=0xe7
[340000] PASS tag=538 sel=3 out=0xb9
[341000] PASS tag=538 sel=4 out=0x49
[342000] PASS tag=538 sel=5 out=0xdb
[343000] PASS tag=538 sel=6 out=0xc9
[344000] PASS tag=538 sel=7 out=0x51
[345000] PASS tag=539 sel=0 out=0xa1
[346000] PASS tag=539 sel=1 out=0x2a
[347000] PASS tag=539 sel=2 out=0xfa
[348000] PASS tag=539 sel=3 out=0x45
[349000] PASS tag=539 sel=4 out=0x83
[350000] PASS tag=539 sel=5 out=0x7c
[351000] PASS tag=539 sel=6 out=0x72
[352000] PASS tag=539 sel=7 out=0xfe
[353000] PASS tag=540 sel=0 out=0x68
[354000] PASS tag=540 sel=1 out=0x6f
[355000] PASS tag=540 sel=2 out=0x86
[356000] PASS tag=540 sel=3 out=0xf0
[357000] PASS tag=540 sel=4 out=0x38
[358000] PASS tag=540 sel=5 out=0x40
[359000] PASS tag=540 sel=6 out=0x28
[360000] PASS tag=540 sel=7 out=0xf6
[361000] PASS tag=541 sel=0 out=0xc5
[362000] PASS tag=541 sel=1 out=0xc0
[363000] PASS tag=541 sel=2 out=0x74
[364000] PASS tag=541 sel=3 out=0x39
[365000] PASS tag=541 sel=4 out=0xb0
[366000] PASS tag=541 sel=5 out=0x3c
[367000] PASS tag=541 sel=6 out=0x2a
[368000] PASS tag=541 sel=7 out=0x62
[369000] PASS tag=542 sel=0 out=0x15
[370000] PASS tag=542 sel=1 out=0xe1
[371000] PASS tag=542 sel=2 out=0x17
[372000] PASS tag=542 sel=3 out=0x43
[373000] PASS tag=542 sel=4 out=0xc9
[374000] PASS tag=542 sel=5 out=0x86
[375000] PASS tag=542 sel=6 out=0x25
[376000] PASS tag=542 sel=7 out=0xc1
[377000] PASS tag=543 sel=0 out=0x8d
[378000] PASS tag=543 sel=1 out=0x5a
[379000] PASS tag=543 sel=2 out=0x7
[380000] PASS tag=543 sel=3 out=0x2c
[381000] PASS tag=543 sel=4 out=0xc
[382000] PASS tag=543 sel=5 out=0x71
[383000] PASS tag=543 sel=6 out=0x3b
[384000] PASS tag=543 sel=7 out=0xb6
[385000] PASS tag=544 sel=0 out=0xf7
[386000] PASS tag=544 sel=1 out=0x9e
[387000] PASS tag=544 sel=2 out=0x5c
[388000] PASS tag=544 sel=3 out=0x55
[389000] PASS tag=544 sel=4 out=0x20
[390000] PASS tag=544 sel=5 out=0xa0
[391000] PASS tag=544 sel=6 out=0x72
[392000] PASS tag=544 sel=7 out=0xb4
[393000] PASS tag=545 sel=0 out=0xdd
[394000] PASS tag=545 sel=1 out=0xd
[395000] PASS tag=545 sel=2 out=0x4b
[396000] PASS tag=545 sel=3 out=0x79
[397000] PASS tag=545 sel=4 out=0x9e
[398000] PASS tag=545 sel=5 out=0xfd
[399000] PASS tag=545 sel=6 out=0x7b
[400000] PASS tag=545 sel=7 out=0x8f
[401000] PASS tag=546 sel=0 out=0x3
[402000] PASS tag=546 sel=1 out=0xe3
[403000] PASS tag=546 sel=2 out=0x1d
[404000] PASS tag=546 sel=3 out=0xb1
[405000] PASS tag=546 sel=4 out=0x44
[406000] PASS tag=546 sel=5 out=0x95
[407000] PASS tag=546 sel=6 out=0xe0
[408000] PASS tag=546 sel=7 out=0xed
[409000] PASS tag=547 sel=0 out=0x52
[410000] PASS tag=547 sel=1 out=0xf8
[411000] PASS tag=547 sel=2 out=0x8d
[412000] PASS tag=547 sel=3 out=0x52
[413000] PASS tag=547 sel=4 out=0x84
[414000] PASS tag=547 sel=5 out=0x46
[415000] PASS tag=547 sel=6 out=0x8c
[416000] PASS tag=547 sel=7 out=0x90
[417000] PASS tag=548 sel=0 out=0x17
[418000] PASS tag=548 sel=1 out=0x6a
[419000] PASS tag=548 sel=2 out=0x84
[420000] PASS tag=548 sel=3 out=0xaa
[421000] PASS tag=548 sel=4 out=0x7c
[422000] PASS tag=548 sel=5 out=0x60
[423000] PASS tag=548 sel=6 out=0xba
[424000] PASS tag=548 sel=7 out=0x8b
[425000] PASS tag=549 sel=0 out=0xa6
[426000] PASS tag=549 sel=1 out=0x25
[427000] PASS tag=549 sel=2 out=0x32
[428000] PASS tag=549 sel=3 out=0xa2
[429000] PASS tag=549 sel=4 out=0x49
[430000] PASS tag=549 sel=5 out=0x14
[431000] PASS tag=549 sel=6 out=0x3d
[432000] PASS tag=549 sel=7 out=0x4b
[433000] PASS tag=600 sel=0 out=0x5c
[434000] PASS tag=600 sel=1 out=0x47
[435000] PASS tag=600 sel=2 out=0x86
[436000] PASS tag=600 sel=3 out=0x39
[437000] PASS tag=600 sel=4 out=0xb4
[438000] PASS tag=600 sel=5 out=0xd0
[439000] PASS tag=600 sel=6 out=0x2c
[440000] PASS tag=600 sel=7 out=0x8c
[441000] PASS tag=700 sel=4 out=0x4b
[442000] PASS tag=700 sel=4 out=0xd4
[443000] PASS tag=700 sel=4 out=0x1c
[444000] PASS tag=700 sel=4 out=0x2b
[445000] PASS tag=700 sel=4 out=0xdb
[446000] PASS tag=700 sel=4 out=0xc5
[447000] PASS tag=700 sel=4 out=0x9b
[448000] PASS tag=700 sel=4 out=0xd4
[449000] PASS tag=700 sel=4 out=0xc2
[450000] PASS tag=700 sel=4 out=0x6
[451000] PASS tag=700 sel=4 out=0x64
[452000] PASS tag=700 sel=4 out=0xf0
[453000] PASS tag=700 sel=4 out=0xa9
[454000] PASS tag=700 sel=4 out=0x65
[455000] PASS tag=700 sel=4 out=0x2a
[456000] PASS tag=700 sel=4 out=0xdb
[457000] PASS tag=700 sel=4 out=0x50
[458000] PASS tag=700 sel=4 out=0xc8
[459000] PASS tag=700 sel=4 out=0xb9
[460000] PASS tag=700 sel=4 out=0x5
All tests PASSED for WIDTH=8, SEL_WIDTH=3 (N_IN=8).
test/tb_pe_mux.sv:145: $finish called at 460000 (1ps)
